M48
;Layer_Color=9474304
;FILE_FORMAT=2:5
INCH,TZ
;TYPE=PLATED
T1F00S00C0.01968
T2F00S00C0.11811
%
T01
X-4921Y-31693
X0Y-10236
X-15748Y-3937
X-19685Y25984
X26181Y31693
X26969Y-31693
T02
X0Y-64961
Y64961
X-64961Y0
X64961
M30
